UTC Time,Gyro_x ,Gyro_y ,Gyro_z ,Acc_x ,Acc_y ,Acc_z ,Roll,Pitch ,Yaw 
2021-10-31 20:30:07.860098,-1,-2,-1,-2710,29,-16394,4.02558241788847,-7.616861555152725,-173.350855311356
2021-10-31 20:30:08.193647,-2,-2,2,-2641,-37,-16381,8.759042259039482,-17.281601789627196,-168.03660757555863
2021-10-31 20:30:08.527750,-3,-3,1,-2661,23,-16373,14.82115289676952,-28.097931985554307,-165.4404016359078
2021-10-31 20:30:08.862004,0,-2,1,-2755,78,-16372,23.28059734947647,-38.40012001910761,-166.90724009467883
2021-10-31 20:30:09.187076,-3,-2,0,-2682,39,-16347,35.0459076269765,-46.82168012264528,-173.21842060441537
2021-10-31 20:30:09.520597,-2,-5,1,-2653,-47,-16355,50.072205901349726,-52.6285216762646,176.03072000146875
2021-10-31 20:30:09.845847,-2,-3,3,-2641,-88,-16378,67.40766124281002,-56.136333105030175,162.0109540430951
2021-10-31 20:30:10.169900,-2,-1,2,-2634,-75,-16365,86.2181273214001,-57.70967513745873,145.5949426554974
2021-10-31 20:30:10.496699,-4,-3,1,-2610,8,-16375,105.38512083295738,-57.101554249990954,127.85778025007447
2021-10-31 20:30:10.821971,-2,-4,1,-2598,6,-16369,122.95318468504028,-54.150792793280296,110.72509653150834
2021-10-31 20:30:11.147520,-2,-1,2,-2681,14,-16365,137.26583056835534,-48.93518483565719,95.9419212502671
2021-10-31 20:30:11.472051,-6,-4,3,-2672,-15,-16396,147.98464368775313,-42.135049325060685,84.21802175577055
2021-10-31 20:30:11.797385,-4,-2,4,-2663,17,-16379,155.57561467176848,-34.46259235322517,75.41956605841219
2021-10-31 20:30:12.122818,-4,-3,1,-2643,-2,-16391,160.94556123304127,-26.751116531633,69.00347834028025
2021-10-31 20:30:12.447566,-5,-2,3,-2645,52,-16336,164.77065597729018,-19.59269990232279,64.38203895090868
2021-10-31 20:30:12.772403,-4,-4,3,-2638,53,-16279,167.6403303757158,-13.381701976755403,61.10434026533846
2021-10-31 20:30:13.098468,1,-3,0,-2689,-43,-16386,169.97848315724602,-8.24716978286421,58.969517536800105
2021-10-31 20:30:13.423233,-1,-3,2,-2646,-56,-16389,171.87171395521818,-4.182038669765802,57.55429979291211
2021-10-31 20:30:13.758366,-2,-2,1,-2659,-38,-16349,173.4249327535484,-1.0218540010096338,56.716605931558604
2021-10-31 20:30:14.084787,-2,-3,3,-2675,-66,-16370,174.7275159013686,1.414253934701519,56.216304971367016
2021-10-31 20:30:14.410268,-2,-4,1,-2600,-60,-16383,175.8262714680807,3.175726487411093,56.01961136149978
2021-10-31 20:30:14.736566,0,-2,-1,-2607,-54,-16393,176.7154162415809,4.524404309707169,55.931230734253106
2021-10-31 20:30:15.061828,-2,-3,2,-2614,-78,-16391,177.4720154744074,5.52767717123547,55.96797066028379
2021-10-31 20:30:15.386019,0,-3,1,-2669,-75,-16370,178.07350945682836,6.347510135797826,56.019950439899276
2021-10-31 20:30:15.710667,-1,-4,0,-2648,-46,-16371,178.53801768670778,6.952781010351979,56.104673352367755
2021-10-31 20:30:16.036467,-3,-2,2,-2699,-48,-16379,178.93569214569558,7.407569524534615,56.270619320043714
2021-10-31 20:30:16.362214,-3,-2,2,-2684,-40,-16371,179.1908214249524,7.829281663691295,56.29343907778648
2021-10-31 20:30:16.687513,-3,-2,1,-2669,-44,-16373,179.4177510190302,8.112888233878747,56.372369761769775
2021-10-31 20:30:17.012187,-2,-4,1,-2665,-25,-16386,179.56373877742527,8.36149978280271,56.39498708191509
2021-10-31 20:30:17.337682,-1,-3,2,-2704,-33,-16385,179.69598077063787,8.567841329917838,56.43987561879566
2021-10-31 20:30:17.664431,-3,-3,0,-2677,-35,-16369,179.78453339017372,8.732394738549807,56.448092763908626
2021-10-31 20:30:17.990061,-2,-3,3,-2703,3,-16359,179.84802991646396,8.848427262253091,56.500801309665825
2021-10-31 20:30:18.316509,-2,-4,2,-2678,-15,-16369,179.94040400924843,8.87699034388567,56.62572618519061
2021-10-31 20:30:18.641258,-1,-3,2,-2555,-95,-16396,180.00236001811493,8.913028213240809,56.57620263189714
2021-10-31 20:30:18.966282,-1,-4,3,-2667,-53,-16377,-179.9496428725071,8.940509791834026,56.66436390058105
2021-10-31 20:30:19.292225,-3,-2,2,-2683,-61,-16374,-179.89918552488933,8.988387065899323,56.723897949511
2021-10-31 20:30:19.616571,-3,-4,3,-2687,-40,-16360,-179.88530270597582,9.047836600385704,56.75394519411838
2021-10-31 20:30:19.941700,-2,-3,2,-2687,-27,-16361,-179.8762813773539,9.083118748341906,56.799444394167736
2021-10-31 20:30:20.267471,-2,-4,2,-2667,-34,-16382,-179.85280444777757,9.077699625476269,56.87374010500992
2021-10-31 20:30:20.593868,-1,-3,1,-2671,-49,-16360,-179.83987018571062,9.106014348606758,56.90343407310194
2021-10-31 20:30:20.918772,-1,-3,0,-2645,-30,-16377,-179.84581324674264,9.109652093647739,56.92733492501713
2021-10-31 20:30:21.245573,-6,3,3,-2676,-23,-16318,-179.86986559045013,9.143101975001494,56.93058378654062
2021-10-31 20:30:21.570942,-2,-2,0,-2612,-65,-16363,-179.86118769304815,9.140298341951421,56.916828317494826
2021-10-31 20:30:21.896581,-2,-4,0,-2587,-44,-16356,-179.85458618445747,9.099397978416606,56.939964824873776
2021-10-31 20:30:22.221855,-3,-3,0,-2665,-54,-16369,-179.86763776079255,9.158975344866331,56.90307773268519
2021-10-31 20:30:22.546674,0,-2,2,-2685,-82,-16365,-179.81089777611894,9.155950053789777,56.972214431277585
2021-10-31 20:30:22.872474,-2,-2,3,-2678,-45,-16375,-179.83670263517635,9.20647147666518,56.93507781594604
2021-10-31 20:30:23.198083,-1,-3,0,-2671,-48,-16369,-179.8166257950315,9.188508395275976,56.99341180858613
2021-10-31 20:30:23.524629,-1,-5,1,-2709,-38,-16362,-179.8034191300294,9.198116119924556,57.061831243175256
2021-10-31 20:30:23.849962,0,-2,3,-2632,-18,-16385,-179.80860382414696,9.143295787074255,57.12119390751445
